{
    "cursos": [
        {
            "id": 0,
            "name": "AngularJS",
            "state": "main.angular",
            "inscritos": [
                {
                    "id": 10,
                    "nombre": "Juan",
                    "apellido": "Perez",
                    "fechaNacimiento": "1990-05-01T00:00:00-04:00"
                }
            ]
        },
        {
            "id": 1,
            "name": "Java SE",
            "state": "main.java",
            "inscritos": [
                {
                    "id": 21,
                    "nombre": "Maria",
                    "apellido": "Rodriguez",
                    "fechaNacimiento": "1995-06-01T00:00:00-04:00"
                },
                {
                    "id": 22,
                    "nombre": "Lourdes",
                    "apellido": "Fernandez",
                    "fechaNacimiento": "1996-05-11T00:00:00-04:00"
                }
            ]
        }
    ]
}